Fall 2020 - Math 421 - Midterm
…
## [1] 21854

midterm2$target <- case_when(midterm2$tot <medtot ~ 'low cost', TRUE ~ 'high cost')

Input Variables:

age,sex,raceethn,provider,moa,mod,admtype,campus, los

midterm3 <- select(midterm2, age, sex, raceethn, provider, moa, mod, admtype, campus, los, target)

Use filter function to filter out rows where raceethn=='' or admtype==''. Make sure all the categorical variables are factor, numeric variables are numeric. Set Training : Testing Split = 10 : 90

midterm3 %>% filter(!(raceethn=='' | admtype==''))

## # A tibble: 127,527 x 10
##      age sex   raceethn provider   moa   mod admtype campus   los target   
##    <dbl> <chr> <chr>    <chr>    <dbl> <dbl> <chr>   <chr>  <dbl> <chr>    
##  1     0 1     1        7214         1     1 4       0          2 low cost 
##  2    76 2     1        7214         1     1 3       0          1 high cost
##  3    50 2     1        7214        12     1 2       0          3 high cost
##  4     0 1     7        7214         1     1 4       0          4 low cost 
##  5     0 1     1        7214        12     1 4       0         35 high cost
##  6     0 2     9        7214        12     1 4       0         17 high cost
##  7     0 2     1        7214         1     1 4       0          2 low cost 
##  8     0 2     1        7214         1     1 4       0          3 low cost 
##  9    70 2     1        7214         1     1 2       0          2 high cost
## 10    25 2     1        7214        12     1 2       0         12 high cost
## # ... with 127,517 more rows
…
Create another target variable (binary), decide the input variables and redo 1 to 5.

medlos <- median(midterm2$los, na.rm = TRUE)

medlos

## [1] 3

midterm2$target2 <- case_when(midterm2$los <medlos ~ 'short stay', TRUE ~ 'long stay')

midterm4 <- select(midterm2, age, sex, raceethn, provider, moa, mod, admtype, campus,tot,target2)

midterm4 %>% filter(!(raceethn=='' | admtype==''))

## # A tibble: 127,527 x 10
##      age sex   raceethn provider   moa   mod admtype campus    tot target2   
##    <dbl> <chr> <chr>    <chr>    <dbl> <dbl> <chr>   <chr>   <dbl> <chr>     
##  1     0 1     1        7214         1     1 4       0        3653 short stay
##  2    76 2     1        7214         1     1 3       0       44075 short stay
##  3    50 2     1        7214        12     1 2       0       99235 long stay 
##  4     0 1     7        7214         1     1 4       0        5412 long stay 
##  5     0 1     1        7214        12     1 4       0       93547 long stay 
##  6     0 2     9        7214        12     1 4       0      207366 long stay 
##  7     0 2     1        7214         1     1 4       0        3242 short stay
##  8     0 2     1        7214         1     1 4       0        4312 long stay 
##  9    70 2     1        7214         1     1 2       0       44173 short stay
## 10    25 2     1        7214        12     1 2       0       60430 long stay 
## # ... with 127,517 more rows
…
