Assignment 9: Visualization - Revealing a graph
…
## Warning: package 'gganimate' was built under R version 3.6.3

Hint:

Use filter to select the most current date

d1 <- df %>%
  filter(Date_reported == '2020-10-07')

Pipe with arrange(-Cumulative_deaths) to rank the data by the number of cumulative deaths

d1 %>%  mutate(rank_order = min_rank(-Cumulative_deaths)) %>% arrange(rank_order)

## # A tibble: 235 x 9
##    Date_reported Country_code Country WHO_region New_cases Cumulative_cases
##    <date>        <chr>        <chr>   <chr>          <dbl>            <dbl>
##  1 2020-10-07    US           United~ AMRO           38920          7380326
##  2 2020-10-07    BR           Brazil  AMRO           11946          4927235
##  3 2020-10-07    IN           India   SEARO          72049          6757131
##  4 2020-10-07    MX           Mexico  AMRO            3417           765082
##  5 2020-10-07    GB           The Un~ EURO           14542           530117
##  6 2020-10-07    IT           Italy   EURO            2677           330263
##  7 2020-10-07    PE           Peru    AMRO            1830           829999
##  8 2020-10-07    ES           Spain   EURO            4030           825410
##  9 2020-10-07    FR           France  EURO           10479           608537
## 10 2020-10-07    IR           Iran (~ EMRO            4151           479825
## # ... with 225 more rows, and 3 more variables: New_deaths <dbl>,
## #   Cumulative_deaths <dbl>, rank_order <int>
…
